sim/waveform.vcd
$date
	Sat Mar 14 12:51:14 2026
$end
$version
	Icarus Verilog
$end
$timescale
	1ps
$end
$scope module riscv_testbench $end
$var reg 1 ! clk $end
$var reg 1 " reset $end
$var integer 32 # fail_count [31:0] $end
$var integer 32 $ pass_count [31:0] $end
$scope module u_dut $end
$var wire 1 ! clk $end
$var wire 1 % id_flush $end
$var wire 1 & is_cnn_addr $end
$var wire 1 ' load_use_stall $end
$var wire 1 " reset $end
$var wire 1 ( stall $end
$var wire 32 ) pc_current [31:0] $end
$var wire 1 * memwb_reg_write $end
$var wire 5 + memwb_rd_addr [4:0] $end
$var wire 2 , memwb_mem_to_reg [1:0] $end
$var wire 32 - memwb_mem_data [31:0] $end
$var wire 32 . memwb_alu_result [31:0] $end
$var wire 32 / mem_read_data [31:0] $end
$var wire 1 0 is_dmem_addr $end
$var wire 32 1 instruction_fetched [31:0] $end
$var wire 32 2 ifid_pc [31:0] $end
$var wire 32 3 ifid_instruction [31:0] $end
$var wire 32 4 idex_rs2_data [31:0] $end
$var wire 5 5 idex_rs2_addr [4:0] $end
$var wire 32 6 idex_rs1_data [31:0] $end
$var wire 5 7 idex_rs1_addr [4:0] $end
$var wire 1 8 idex_reg_write $end
$var wire 5 9 idex_rd_addr [4:0] $end
$var wire 32 : idex_pc [31:0] $end
$var wire 1 ; idex_mem_write $end
$var wire 2 < idex_mem_to_reg [1:0] $end
$var wire 1 = idex_mem_read $end
$var wire 32 > idex_immediate [31:0] $end
$var wire 1 ? idex_alu_src $end
$var wire 4 @ idex_alu_ctrl [3:0] $end
$var wire 32 A id_rs2_data [31:0] $end
$var wire 5 B id_rs2_addr [4:0] $end
$var wire 32 C id_rs1_data [31:0] $end
$var wire 5 D id_rs1_addr [4:0] $end
$var wire 1 E id_reg_write $end
$var wire 5 F id_rd [4:0] $end
$var wire 7 G id_opcode [6:0] $end
$var wire 1 H id_mem_write $end
$var wire 2 I id_mem_to_reg [1:0] $end
$var wire 1 J id_mem_read $end
$var wire 32 K id_immediate [31:0] $end
$var wire 7 L id_funct7 [6:0] $end
$var wire 3 M id_funct3 [2:0] $end
$var wire 1 N id_alu_src $end
$var wire 4 O id_alu_ctrl [3:0] $end
$var wire 32 P exmem_rs2_data [31:0] $end
$var wire 1 Q exmem_reg_write $end
$var wire 5 R exmem_rd_addr [4:0] $end
$var wire 1 S exmem_mem_write $end
$var wire 2 T exmem_mem_to_reg [1:0] $end
$var wire 1 U exmem_mem_read $end
$var wire 32 V exmem_alu_result [31:0] $end
$var wire 1 W ex_zero_flag $end
$var wire 32 X ex_forwarded_rs2 [31:0] $end
$var wire 32 Y ex_forwarded_rs1 [31:0] $end
$var wire 32 Z ex_alu_result [31:0] $end
$var wire 32 [ ex_alu_operand_b [31:0] $end
$var wire 32 \ dmem_read_data [31:0] $end
$var wire 32 ] cnn_read_data [31:0] $end
$var wire 1 ^ cnn_done $end
$var reg 32 _ wb_write_data [31:0] $end
$scope module u_alu $end
$var wire 32 ` operand_a [31:0] $end
$var wire 32 a operand_b [31:0] $end
$var wire 1 W zero_flag $end
$var wire 4 b alu_ctrl [3:0] $end
$var parameter 4 c ALU_ADD $end
$var parameter 4 d ALU_AND $end
$var parameter 4 e ALU_OR $end
$var parameter 4 f ALU_SUB $end
$var reg 32 g alu_result [31:0] $end
$upscope $end
$scope module u_cnn_accel $end
$var wire 32 h bus_addr [31:0] $end
$var wire 1 i bus_we $end
$var wire 1 ! clk $end
$var wire 1 ^ cnn_done $end
$var wire 1 j px_valid $end
$var wire 1 k rst_n $end
$var wire 72 l weights_2 [71:0] $end
$var wire 72 m weights_3 [71:0] $end
$var wire 72 n weights_1 [71:0] $end
$var wire 32 o weight_addr [31:0] $end
$var wire 1 p start $end
$var wire 8 q px_in [7:0] $end
$var wire 32 r output_addr [31:0] $end
$var wire 32 s kernel_size [31:0] $end
$var wire 32 t input_addr [31:0] $end
$var wire 32 u feature_size [31:0] $end
$var wire 1 v done $end
$var wire 1 w conv3_start $end
$var wire 1 x conv3_done $end
$var wire 1 y conv2_start $end
$var wire 1 z conv2_done $end
$var wire 1 { conv1_start $end
$var wire 1 | conv1_done $end
$var wire 32 } bus_dout [31:0] $end
$var wire 32 ~ bus_din [31:0] $end
$scope module conv_accelerator_1 $end
$var wire 1 ! clk $end
$var wire 1 j pixel_valid $end
$var wire 1 k rst_n $end
$var wire 1 !" window_valid $end
$var wire 72 "" window_data [71:0] $end
$var wire 72 #" weights [71:0] $end
$var wire 1 { start $end
$var wire 8 $" pixel_in [7:0] $end
$var wire 1 %" mac_valid $end
$var wire 24 &" mac_out [23:0] $end
$var parameter 2 '" ST_DONE $end
$var parameter 2 (" ST_IDLE $end
$var parameter 2 )" ST_RUN $end
$var reg 1 | done $end
$var reg 7 *" pixel_count [6:0] $end
$var reg 24 +" pixel_out [23:0] $end
$var reg 1 ," pixel_out_valid $end
$var reg 2 -" state [1:0] $end
$scope module u_mac_array $end
$var wire 1 ! clk $end
$var wire 24 ." partial_sum [23:0] $end
$var wire 1 k rst_n $end
$var wire 72 /" window_data [71:0] $end
$var wire 72 0" weight_data [71:0] $end
$var wire 1 !" en $end
$var reg 24 1" out_data [23:0] $end
$var reg 1 %" out_valid $end
$var reg 24 2" psum_comb [23:0] $end
$var integer 32 3" i [31:0] $end
$upscope $end
$scope module u_sliding_window $end
$var wire 1 ! clk $end
$var wire 1 j en $end
$var wire 1 j pixel_valid $end
$var wire 1 k rst_n $end
$var wire 8 4" pixel_in [7:0] $end
$var wire 1 { new_frame $end
$var parameter 32 5" IMG_WIDTH $end
$var reg 4 6" col_count [3:0] $end
$var reg 4 7" row_count [3:0] $end
$var reg 72 8" window_out [71:0] $end
$var reg 1 !" window_valid $end
$var integer 32 9" i [31:0] $end
$upscope $end
$upscope $end
$scope module conv_accelerator_2 $end
$var wire 1 ! clk $end
$var wire 1 j pixel_valid $end
$var wire 1 k rst_n $end
$var wire 72 :" weights [71:0] $end
$var wire 1 ;" window_valid $end
$var wire 72 <" window_data [71:0] $end
$var wire 1 y start $end
$var wire 8 =" pixel_in [7:0] $end
$var wire 1 >" mac_valid $end
$var wire 24 ?" mac_out [23:0] $end
$var parameter 2 @" ST_DONE $end
$var parameter 2 A" ST_IDLE $end
$var parameter 2 B" ST_RUN $end
$var reg 1 z done $end
$var reg 7 C" pixel_count [6:0] $end
$var reg 24 D" pixel_out [23:0] $end
$var reg 1 E" pixel_out_valid $end
$var reg 2 F" state [1:0] $end
$scope module u_mac_array $end
$var wire 1 ! clk $end
$var wire 24 G" partial_sum [23:0] $end
$var wire 1 k rst_n $end
$var wire 72 H" weight_data [71:0] $end
$var wire 72 I" window_data [71:0] $end
$var wire 1 ;" en $end
$var reg 24 J" out_data [23:0] $end
$var reg 1 >" out_valid $end
$var reg 24 K" psum_comb [23:0] $end
$var integer 32 L" i [31:0] $end
$upscope $end
$scope module u_sliding_window $end
$var wire 1 ! clk $end
$var wire 1 j en $end
$var wire 1 j pixel_valid $end
$var wire 1 k rst_n $end
$var wire 8 M" pixel_in [7:0] $end
$var wire 1 y new_frame $end
$var parameter 32 N" IMG_WIDTH $end
$var reg 4 O" col_count [3:0] $end
$var reg 4 P" row_count [3:0] $end
$var reg 72 Q" window_out [71:0] $end
$var reg 1 ;" window_valid $end
$var integer 32 R" i [31:0] $end
$upscope $end
$upscope $end
$scope module conv_accelerator_3 $end
$var wire 1 ! clk $end
$var wire 1 j pixel_valid $end
$var wire 1 k rst_n $end
$var wire 72 S" weights [71:0] $end
$var wire 1 T" window_valid $end
$var wire 72 U" window_data [71:0] $end
$var wire 1 w start $end
$var wire 8 V" pixel_in [7:0] $end
$var wire 1 W" mac_valid $end
$var wire 24 X" mac_out [23:0] $end
$var parameter 2 Y" ST_DONE $end
$var parameter 2 Z" ST_IDLE $end
$var parameter 2 [" ST_RUN $end
$var reg 1 x done $end
$var reg 7 \" pixel_count [6:0] $end
$var reg 24 ]" pixel_out [23:0] $end
$var reg 1 ^" pixel_out_valid $end
$var reg 2 _" state [1:0] $end
$scope module u_mac_array $end
$var wire 1 ! clk $end
$var wire 24 `" partial_sum [23:0] $end
$var wire 1 k rst_n $end
$var wire 72 a" weight_data [71:0] $end
$var wire 72 b" window_data [71:0] $end
$var wire 1 T" en $end
$var reg 24 c" out_data [23:0] $end
$var reg 1 W" out_valid $end
$var reg 24 d" psum_comb [23:0] $end
$var integer 32 e" i [31:0] $end
$upscope $end
$scope module u_sliding_window $end
$var wire 1 ! clk $end
$var wire 1 j en $end
$var wire 1 j pixel_valid $end
$var wire 1 k rst_n $end
$var wire 8 f" pixel_in [7:0] $end
$var wire 1 w new_frame $end
$var parameter 32 g" IMG_WIDTH $end
$var reg 4 h" col_count [3:0] $end
$var reg 4 i" row_count [3:0] $end
$var reg 72 j" window_out [71:0] $end
$var reg 1 T" window_valid $end
$var integer 32 k" i [31:0] $end
$upscope $end
$upscope $end
$scope module u_cnn_controller $end
$var wire 1 ! clk $end
$var wire 1 | conv1_done $end
$var wire 1 z conv2_done $end
$var wire 1 x conv3_done $end
$var wire 1 k rst_n $end
$var wire 1 p start $end
$var wire 32 l" processor_config [31:0] $end
$var parameter 3 m" ST_DONE $end
$var parameter 3 n" ST_IDLE $end
$var parameter 3 o" ST_LOAD_CONFIG $end
$var parameter 3 p" ST_RUN_CONV1 $end
$var parameter 3 q" ST_RUN_CONV2 $end
$var parameter 3 r" ST_RUN_CONV3 $end
$var parameter 3 s" ST_WRITE_OUTPUT $end
$var reg 1 { conv1_start $end
$var reg 1 y conv2_start $end
$var reg 1 w conv3_start $end
$var reg 1 v done $end
$var reg 3 t" next_state [2:0] $end
$var reg 3 u" state [2:0] $end
$upscope $end
$scope module u_feature_map_ram $end
$var wire 6 v" addra [5:0] $end
$var wire 6 w" addrb [5:0] $end
$var wire 1 ! clk $end
$var wire 8 x" dina [7:0] $end
$var wire 1 y" enb $end
$var wire 1 z" wea $end
$var parameter 32 {" ADDR_WIDTH $end
$var parameter 32 |" DATA_WIDTH $end
$var reg 8 }" doutb [7:0] $end
$upscope $end
$scope module u_reg_interface $end
$var wire 32 ~" addr [31:0] $end
$var wire 1 ! clk $end
$var wire 1 v done $end
$var wire 1 k rst_n $end
$var wire 1 i we $end
$var wire 32 !# din [31:0] $end
$var parameter 32 "# REG_DONE $end
$var parameter 32 ## REG_FEATURE_SIZE $end
$var parameter 32 $# REG_INPUT_ADDR $end
$var parameter 32 %# REG_KERNEL_SIZE $end
$var parameter 32 &# REG_OUTPUT_ADDR $end
$var parameter 32 '# REG_START $end
$var parameter 32 (# REG_WEIGHT_ADDR $end
$var reg 32 )# dout [31:0] $end
$var reg 32 *# feature_size [31:0] $end
$var reg 32 +# input_addr [31:0] $end
$var reg 32 ,# kernel_size [31:0] $end
$var reg 32 -# output_addr [31:0] $end
$var reg 1 p start $end
$var reg 32 .# weight_addr [31:0] $end
$upscope $end
$scope module u_weight_ram $end
$var wire 2 /# addra [1:0] $end
$var wire 2 0# addrb [1:0] $end
$var wire 1 ! clk $end
$var wire 72 1# dina [71:0] $end
$var wire 1 2# enb $end
$var wire 1 3# wea $end
$var parameter 32 4# ADDR_WIDTH $end
$var parameter 32 5# WEIGHT_WIDTH $end
$var reg 72 6# doutb [71:0] $end
$upscope $end
$upscope $end
$scope module u_ctrl $end
$var wire 3 7# funct3 [2:0] $end
$var wire 7 8# funct7 [6:0] $end
$var wire 7 9# opcode [6:0] $end
$var parameter 4 :# ALU_ADD $end
$var parameter 4 ;# ALU_AND $end
$var parameter 4 <# ALU_OR $end
$var parameter 4 =# ALU_SUB $end
$var parameter 7 ># OP_I_TYPE $end
$var parameter 7 ?# OP_LOAD $end
$var parameter 7 @# OP_R_TYPE $end
$var parameter 7 A# OP_STORE $end
$var reg 4 B# alu_ctrl [3:0] $end
$var reg 1 N alu_src $end
$var reg 1 J mem_read $end
$var reg 2 C# mem_to_reg [1:0] $end
$var reg 1 H mem_write $end
$var reg 1 E reg_write $end
$upscope $end
$scope module u_exmem $end
$var wire 32 D# alu_result_in [31:0] $end
$var wire 1 ! clk $end
$var wire 1 " reset $end
$var wire 32 E# rs2_data_in [31:0] $end
$var wire 1 F# stall $end
$var wire 1 8 reg_write_in $end
$var wire 5 G# rd_addr_in [4:0] $end
$var wire 1 ; mem_write_in $end
$var wire 2 H# mem_to_reg_in [1:0] $end
$var wire 1 = mem_read_in $end
$var reg 32 I# alu_result_out [31:0] $end
$var reg 1 U mem_read_out $end
$var reg 2 J# mem_to_reg_out [1:0] $end
$var reg 1 S mem_write_out $end
$var reg 5 K# rd_addr_out [4:0] $end
$var reg 1 Q reg_write_out $end
$var reg 32 L# rs2_data_out [31:0] $end
$upscope $end
$scope module u_idex $end
$var wire 4 M# alu_ctrl_in [3:0] $end
$var wire 1 N alu_src_in $end
$var wire 1 ! clk $end
$var wire 1 % flush $end
$var wire 32 N# immediate_in [31:0] $end
$var wire 1 J mem_read_in $end
$var wire 2 O# mem_to_reg_in [1:0] $end
$var wire 1 H mem_write_in $end
$var wire 5 P# rd_addr_in [4:0] $end
$var wire 1 E reg_write_in $end
$var wire 1 " reset $end
$var wire 5 Q# rs1_addr_in [4:0] $end
$var wire 5 R# rs2_addr_in [4:0] $end
$var wire 1 S# stall $end
$var wire 32 T# rs2_data_in [31:0] $end
$var wire 32 U# rs1_data_in [31:0] $end
$var wire 32 V# pc_in [31:0] $end
$var reg 4 W# alu_ctrl_out [3:0] $end
$var reg 1 ? alu_src_out $end
$var reg 32 X# immediate_out [31:0] $end
$var reg 1 = mem_read_out $end
$var reg 2 Y# mem_to_reg_out [1:0] $end
$var reg 1 ; mem_write_out $end
$var reg 32 Z# pc_out [31:0] $end
$var reg 5 [# rd_addr_out [4:0] $end
$var reg 1 8 reg_write_out $end
$var reg 5 \# rs1_addr_out [4:0] $end
$var reg 32 ]# rs1_data_out [31:0] $end
$var reg 5 ^# rs2_addr_out [4:0] $end
$var reg 32 _# rs2_data_out [31:0] $end
$upscope $end
$scope module u_ifid $end
$var wire 1 ! clk $end
$var wire 1 `# flush $end
$var wire 1 " reset $end
$var wire 1 ( stall $end
$var wire 32 a# pc_in [31:0] $end
$var wire 32 b# instruction_in [31:0] $end
$var reg 32 c# instruction_out [31:0] $end
$var reg 32 d# pc_out [31:0] $end
$upscope $end
$scope module u_imem $end
$var wire 32 e# instruction [31:0] $end
$var wire 32 f# addr [31:0] $end
$upscope $end
$scope module u_memwb $end
$var wire 32 g# alu_result_in [31:0] $end
$var wire 1 ! clk $end
$var wire 32 h# mem_data_in [31:0] $end
$var wire 2 i# mem_to_reg_in [1:0] $end
$var wire 5 j# rd_addr_in [4:0] $end
$var wire 1 Q reg_write_in $end
$var wire 1 " reset $end
$var reg 32 k# alu_result_out [31:0] $end
$var reg 32 l# mem_data_out [31:0] $end
$var reg 2 m# mem_to_reg_out [1:0] $end
$var reg 5 n# rd_addr_out [4:0] $end
$var reg 1 * reg_write_out $end
$upscope $end
$scope module u_pc $end
$var wire 1 ! clk $end
$var wire 1 " reset $end
$var wire 1 ( stall $end
$var reg 32 o# pc_out [31:0] $end
$upscope $end
$scope module u_regfile $end
$var wire 1 ! clk $end
$var wire 5 p# rd_addr [4:0] $end
$var wire 32 q# rd_data [31:0] $end
$var wire 1 " reset $end
$var wire 5 r# rs1_addr [4:0] $end
$var wire 5 s# rs2_addr [4:0] $end
$var wire 1 * wr_en $end
$var wire 32 t# rs2_data [31:0] $end
$var wire 32 u# rs1_data [31:0] $end
$var integer 32 v# i [31:0] $end
$upscope $end
$upscope $end
$upscope $end
$enddefinitions $end
$comment Show the parameter values. $end
$dumpall
b100011 A#
b110011 @#
b11 ?#
b10011 >#
b1 =#
b11 <#
b10 ;#
b0 :#
b1001000 5#
b10 4#
b100 (#
b10100 '#
b1000 &#
b10000 %#
b0 $#
b1100 ##
b11000 "#
b1000 |"
b110 {"
b101 s"
b100 r"
b11 q"
b10 p"
b1 o"
b0 n"
b110 m"
b1000 g"
b1 ["
b0 Z"
b10 Y"
b1000 N"
b1 B"
b0 A"
b10 @"
b1000 5"
b1 )"
b0 ("
b10 '"
b1 f
b11 e
b10 d
b0 c
$end
#0
$dumpvars
b100000 v#
b0 u#
b0 t#
b0 s#
b0 r#
b0 q#
b0 p#
b0 o#
b0 n#
b0 m#
b0 l#
b0 k#
b0 j#
b0 i#
b0 h#
b0 g#
b0 f#
b110010000000000000010010011 e#
b0 d#
b10011 c#
b110010000000000000010010011 b#
b0 a#
0`#
b0 _#
b0 ^#
b0 ]#
b0 \#
b0 [#
b0 Z#
b0 Y#
b0 X#
b0 W#
b0 V#
b0 U#
b0 T#
0S#
b0 R#
b0 Q#
b0 P#
b0 O#
b0 N#
b0 M#
b0 L#
b0 K#
b0 J#
b0 I#
b0 H#
b0 G#
0F#
b0 E#
b0 D#
b0 C#
b0 B#
b10011 9#
b0 8#
b0 7#
bx 6#
03#
12#
b0 1#
b0 0#
b0 /#
b0 .#
b0 -#
b11 ,#
b0 +#
b1000 *#
b0 )#
b0 !#
b11111111111111111111000000000000 ~"
bx }"
0z"
1y"
b0 x"
b0 w"
b0 v"
b0 u"
b0 t"
b1000 l"
b1001 k"
b0 j"
b0 i"
b0 h"
bx f"
b1001 e"
bx d"
b0 c"
b0 b"
bx a"
b0 `"
b0 _"
0^"
b0 ]"
b0 \"
b0 X"
0W"
bx V"
b0 U"
0T"
bx S"
b1001 R"
b0 Q"
b0 P"
b0 O"
bx M"
b1001 L"
bx K"
b0 J"
b0 I"
bx H"
b0 G"
b0 F"
0E"
b0 D"
b0 C"
b0 ?"
0>"
bx ="
b0 <"
0;"
bx :"
b1001 9"
b0 8"
b0 7"
b0 6"
bx 4"
b1001 3"
bx 2"
b0 1"
bx 0"
b0 /"
b0 ."
b0 -"
0,"
b0 +"
b0 *"
b0 &"
0%"
bx $"
bx #"
b0 ""
0!"
b0 ~
b0 }
0|
0{
0z
0y
0x
0w
0v
b1000 u
b0 t
b11 s
b0 r
bx q
0p
b0 o
bx n
bx m
bx l
0k
1j
0i
b11111111111111111111000000000000 h
b0 g
b0 b
b0 a
b0 `
b0 _
0^
b0 ]
b0 \
b0 [
b0 Z
b0 Y
b0 X
1W
b0 V
0U
b0 T
0S
b0 R
0Q
b0 P
b0 O
1N
b0 M
b0 L
b0 K
0J
b0 I
0H
b10011 G
b0 F
1E
b0 D
b0 C
b0 B
b0 A
b0 @
0?
b0 >
0=
b0 <
0;
b0 :
b0 9
08
b0 7
b0 6
b0 5
b0 4
b10011 3
b0 2
b110010000000000000010010011 1
10
b0 /
b0 .
b0 -
b0 ,
b0 +
0*
b0 )
0(
0'
0&
0%
b0 $
b0 #
1"
0!
$end
#5000
b1001 k"
b1001 R"
b1001 9"
b100000 v#
1!
#10000
0!
#15000
b1001 9"
b1001 R"
b1001 k"
b100000 v#
1!
#20000
1k
0!
0"
#25000
1N
1E
b1001 e"
bx d"
b1001 L"
bx K"
b1001 3"
bx 2"
b1100100 K
b1100100 N#
b11 L
b11 8#
b100 B
b100 R#
b100 s#
b1 F
b1 P#
b11011100000000000100010011 1
b11011100000000000100010011 b#
b11011100000000000100010011 e#
b1 h"
bx0000000000000000000000000000000000000000000000000000000000000000 U"
bx0000000000000000000000000000000000000000000000000000000000000000 b"
bx0000000000000000000000000000000000000000000000000000000000000000 j"
b1 O"
bx0000000000000000000000000000000000000000000000000000000000000000 <"
bx0000000000000000000000000000000000000000000000000000000000000000 I"
bx0000000000000000000000000000000000000000000000000000000000000000 Q"
b1 6"
bx0000000000000000000000000000000000000000000000000000000000000000 ""
bx0000000000000000000000000000000000000000000000000000000000000000 /"
bx0000000000000000000000000000000000000000000000000000000000000000 8"
1?
18
b110010000000000000010010011 3
b110010000000000000010010011 c#
b100 )
b100 a#
b100 f#
b100 o#
1!
#30000
0!
#35000
1N
1E
0W
b1100100 Z
b1100100 g
b1100100 D#
b1001 3"
bx 2"
b1001 L"
bx K"
b1001 e"
bx d"
b1000001000000110110011 1
b1000001000000110110011 b#
b1000001000000110110011 e#
b110111 K
b110111 N#
b1 L
b1 8#
b10111 B
b10111 R#
b10111 s#
b10 F
b10 P#
b1100100 [
b1100100 a
b10 6"
bx00000000000000000000000000000000000000000000000000000000 ""
bx00000000000000000000000000000000000000000000000000000000 /"
bx00000000000000000000000000000000000000000000000000000000 8"
b10 O"
bx00000000000000000000000000000000000000000000000000000000 <"
bx00000000000000000000000000000000000000000000000000000000 I"
bx00000000000000000000000000000000000000000000000000000000 Q"
b10 h"
bx00000000000000000000000000000000000000000000000000000000 U"
bx00000000000000000000000000000000000000000000000000000000 b"
bx00000000000000000000000000000000000000000000000000000000 j"
b1000 )
b1000 a#
b1000 f#
b1000 o#
b11011100000000000100010011 3
b11011100000000000100010011 c#
b100 2
b100 V#
b100 d#
b100 5
b100 ^#
b1 9
b1 G#
b1 [#
b1100100 >
b1100100 X#
1Q
1!
#40000
0!
#45000
b110111 Z
b110111 g
b110111 D#
0N
1E
b1001 e"
bx d"
b1001 L"
bx K"
b1001 3"
bx 2"
b110111 [
b110111 a
b10 K
b10 N#
b0 L
b0 8#
b10 B
b10 R#
b10 s#
b1 D
b1 Q#
b1 r#
b11 F
b11 P#
b110011 G
b110011 9#
b1000000000100011000001000110011 1
b1000000000100011000001000110011 b#
b1000000000100011000001000110011 e#
0T"
b11 h"
bx000000000000000000000000000000000000000000000000 U"
bx000000000000000000000000000000000000000000000000 b"
bx000000000000000000000000000000000000000000000000 j"
0;"
b11 O"
bx000000000000000000000000000000000000000000000000 <"
bx000000000000000000000000000000000000000000000000 I"
bx000000000000000000000000000000000000000000000000 Q"
0!"
b11 6"
bx000000000000000000000000000000000000000000000000 ""
bx000000000000000000000000000000000000000000000000 /"
bx000000000000000000000000000000000000000000000000 8"
1*
b1 R
b1 K#
b1 j#
b11111111111111111111000001100100 h
b11111111111111111111000001100100 ~"
b1100100 V
b1100100 I#
b1100100 g#
b10111 5
b10111 ^#
b10 9
b10 G#
b10 [#
b110111 >
b110111 X#
b100 :
b100 Z#
b1000001000000110110011 3
b1000001000000110110011 c#
b1000 2
b1000 V#
b1000 d#
b1100 )
b1100 a#
b1100 f#
b1100 o#
1!
#50000
0!
#55000
b1100100 A
b1100100 T#
b1100100 t#
b0 C
b0 U#
b0 u#
b1100100 Y
b1100100 `
b1 O
b1 B#
b1 M#
1E
b110111 X
b110111 E#
0W
b10011011 Z
b10011011 g
b10011011 D#
b10000011000001010110011 1
b10000011000001010110011 b#
b10000011000001010110011 e#
b10000000001 K
b10000000001 N#
b100000 L
b100000 8#
b1 B
b1 R#
b1 s#
b11 D
b11 Q#
b11 r#
b100 F
b100 P#
b110111 [
b110111 a
b1100100 _
b1100100 q#
0!"
b100 6"
0;"
b100 O"
0T"
b100 h"
b10000 )
b10000 a#
b10000 f#
b10000 o#
b1000000000100011000001000110011 3
b1000000000100011000001000110011 c#
b1100 2
b1100 V#
b1100 d#
b10 5
b10 ^#
b1 7
b1 \#
b11 9
b11 G#
b11 [#
b10 >
b10 X#
b1000 :
b1000 Z#
0?
b10 R
b10 K#
b10 j#
b11111111111111111111000000110111 h
b11111111111111111111000000110111 ~"
b110111 V
b110111 I#
b110111 g#
b1 +
b1 n#
b1 p#
b1100100 .
b1100100 k#
1!
#60000
0!
#65000
b0 A
b0 T#
b0 t#
b10011011 Y
b10011011 `
b1100100 [
b1100100 a
b0 O
b0 B#
b0 M#
1E
b110111 _
b110111 q#
b1100100 X
b1100100 E#
b110111 Z
b110111 g
b110111 D#
b100 K
b100 N#
b0 L
b0 8#
b100 B
b100 R#
b100 s#
b101 F
b101 P#
b1000001111001100110011 1
b1000001111001100110011 b#
b1000001111001100110011 e#
0T"
b101 h"
0;"
b101 O"
0!"
b101 6"
b10 +
b10 n#
b10 p#
b110111 .
b110111 k#
b11 R
b11 K#
b11 j#
b110111 P
b110111 ~
b110111 !#
b110111 L#
b11111111111111111111000010011011 h
b11111111111111111111000010011011 ~"
b10011011 V
b10011011 I#
b10011011 g#
b1 5
b1 ^#
b11 7
b11 \#
b100 9
b100 G#
b100 [#
b10000000001 >
b10000000001 X#
b1100100 4
b1100100 _#
b1100 :
b1100 Z#
b1 @
b1 b
b1 W#
b10000011000001010110011 3
b10000011000001010110011 c#
b10000 2
b10000 V#
b10000 d#
b10100 )
b10100 a#
b10100 f#
b10100 o#
1!
#70000
0!
#75000
b110111 A
b110111 T#
b110111 t#
b110111 [
b110111 a
b1100100 C
b1100100 U#
b1100100 u#
b10 O
b10 B#
b10 M#
1E
b110111 X
b110111 E#
b1000001110001110110011 1
b1000001110001110110011 b#
b1000001110001110110011 e#
b10 K
b10 N#
b10 B
b10 R#
b10 s#
b1 D
b1 Q#
b1 r#
b111 M
b111 7#
b110 F
b110 P#
b11010010 Z
b11010010 g
b11010010 D#
b10011011 Y
b10011011 `
b10011011 _
b10011011 q#
0!"
b110 6"
0;"
b110 O"
0T"
b110 h"
b11000 )
b11000 a#
b11000 f#
b11000 o#
b1000001111001100110011 3
b1000001111001100110011 c#
b10100 2
b10100 V#
b10100 d#
b100 5
b100 ^#
b101 9
b101 G#
b101 [#
b100 >
b100 X#
b0 4
b0 _#
b10000 :
b10000 Z#
b0 @
b0 b
b0 W#
b100 R
b100 K#
b100 j#
b1100100 P
b1100100 ~
b1100100 !#
b1100100 L#
b11111111111111111111000000110111 h
b11111111111111111111000000110111 ~"
b110111 V
b110111 I#
b110111 g#
b11 +
b11 n#
b11 p#
b10011011 .
b10011011 k#
1!
#80000
0!
#85000
b1100100 Y
b1100100 `
b11 O
b11 B#
b11 M#
1E
b110111 _
b110111 q#
b100100 Z
b100100 g
b100100 D#
b110 M
b110 7#
b111 F
b111 P#
b11111111011000101000010000010011 1
b11111111011000101000010000010011 b#
b11111111011000101000010000010011 e#
0T"
b111 h"
0;"
b111 O"
0!"
b111 6"
b100 +
b100 n#
b100 p#
b110111 .
b110111 k#
b101 R
b101 K#
b101 j#
b110111 P
b110111 ~
b110111 !#
b110111 L#
b11111111111111111111000011010010 h
b11111111111111111111000011010010 ~"
b11010010 V
b11010010 I#
b11010010 g#
b10 5
b10 ^#
b1 7
b1 \#
b110 9
b110 G#
b110 [#
b10 >
b10 X#
b110111 4
b110111 _#
b1100100 6
b1100100 ]#
b10100 :
b10100 Z#
b10 @
b10 b
b10 W#
b1000001110001110110011 3
b1000001110001110110011 c#
b11000 2
b11000 V#
b11000 d#
b11100 )
b11100 a#
b11100 f#
b11100 o#
1!
#90000
0!
#95000
b0 A
b0 T#
b0 t#
b11010010 C
b11010010 U#
b11010010 u#
1N
b0 O
b0 B#
b0 M#
1E
b1000000011101000000010010110011 1
b1000000011101000000010010110011 b#
b1000000011101000000010010110011 e#
b11111111111111111111111111110110 K
b11111111111111111111111111110110 N#
b1111111 L
b1111111 8#
b10110 B
b10110 R#
b10110 s#
b101 D
b101 Q#
b101 r#
b0 M
b0 7#
b1000 F
b1000 P#
b10011 G
b10011 9#
b1110111 Z
b1110111 g
b1110111 D#
b11010010 _
b11010010 q#
0!"
b1 7"
b0 6"
0;"
b1 P"
b0 O"
0T"
b1 i"
b0 h"
b100000 )
b100000 a#
b100000 f#
b100000 o#
b11111111011000101000010000010011 3
b11111111011000101000010000010011 c#
b11100 2
b11100 V#
b11100 d#
b111 9
b111 G#
b111 [#
b11000 :
b11000 Z#
b11 @
b11 b
b11 W#
b110 R
b110 K#
b110 j#
b11111111111111111111000000100100 h
b11111111111111111111000000100100 ~"
b100100 V
b100100 I#
b100100 g#
b101 +
b101 n#
b101 p#
b11010010 .
b11010010 k#
1!
#100000
0!
#105000
b0 C
b0 U#
b0 u#
b0 X
b0 E#
b11010010 Y
b11010010 `
b1 O
b1 B#
b1 M#
0N
1E
b1001 e"
bx d"
b1001 L"
bx K"
b1001 3"
bx 2"
b100100 _
b100100 q#
b11001000 Z
b11001000 g
b11001000 D#
b11111111111111111111111111110110 [
b11111111111111111111111111110110 a
b10000000111 K
b10000000111 N#
b100000 L
b100000 8#
b111 B
b111 R#
b111 s#
b1000 D
b1000 Q#
b1000 r#
b1001 F
b1001 P#
b110011 G
b110011 9#
b11001001000010100110011 1
b11001001000010100110011 b#
b11001001000010100110011 e#
b1 h"
bx0000000000000000000000000000000000000000 U"
bx0000000000000000000000000000000000000000 b"
bx0000000000000000000000000000000000000000 j"
b1 O"
bx0000000000000000000000000000000000000000 <"
bx0000000000000000000000000000000000000000 I"
bx0000000000000000000000000000000000000000 Q"
b1 6"
bx0000000000000000000000000000000000000000 ""
bx0000000000000000000000000000000000000000 /"
bx0000000000000000000000000000000000000000 8"
b110 +
b110 n#
b110 p#
b100100 .
b100100 k#
b111 R
b111 K#
b111 j#
b11111111111111111111000001110111 h
b11111111111111111111000001110111 ~"
b1110111 V
b1110111 I#
b1110111 g#
b10110 5
b10110 ^#
b101 7
b101 \#
b1000 9
b1000 G#
b1000 [#
b11111111111111111111111111110110 >
b11111111111111111111111111110110 X#
b0 4
b0 _#
b11010010 6
b11010010 ]#
b11100 :
b11100 Z#
b0 @
b0 b
b0 W#
1?
b1000000011101000000010010110011 3
b1000000011101000000010010110011 c#
b100000 2
b100000 V#
b100000 d#
b100100 )
b100100 a#
b100100 f#
b100100 o#
1!
#110000
0!
