edge_ai_cnn_accelerator/cnn_controller_tb.vcd
$date
	Sat Mar 14 12:59:16 2026
$end
$version
	Icarus Verilog
$end
$timescale
	1ps
$end
$scope module cnn_controller_tb $end
$var wire 1 ! write_output $end
$var wire 1 " next_pixel $end
$var wire 1 # load_window $end
$var wire 1 $ enable_mac $end
$var wire 1 % done $end
$var reg 1 & clk $end
$var reg 1 ' image_done $end
$var reg 1 ( mac_done $end
$var reg 1 ) rst_n $end
$var reg 1 * start $end
$scope module uut $end
$var wire 1 & clk $end
$var wire 1 ' image_done $end
$var wire 1 ( mac_done $end
$var wire 1 ) rst_n $end
$var wire 1 * start $end
$var parameter 3 + ACCUMULATE $end
$var parameter 3 , DONE_STATE $end
$var parameter 3 - IDLE $end
$var parameter 3 . LOAD_WINDOW $end
$var parameter 3 / MULTIPLY $end
$var parameter 3 0 NEXT_PIXEL $end
$var parameter 3 1 WRITE_OUTPUT $end
$var reg 1 % done $end
$var reg 1 $ enable_mac $end
$var reg 1 # load_window $end
$var reg 1 " next_pixel $end
$var reg 3 2 next_state [2:0] $end
$var reg 3 3 state [2:0] $end
$var reg 1 ! write_output $end
$upscope $end
$upscope $end
$enddefinitions $end
$comment Show the parameter values. $end
$dumpall
b100 1
b101 0
b10 /
b1 .
b0 -
b110 ,
b11 +
$end
#0
$dumpvars
b0 3
b0 2
0*
0)
0(
0'
0&
0%
0$
0#
0"
0!
$end
#5000
1&
#10000
0&
#15000
1&
#20000
0&
1)
#25000
1&
#30000
b1 2
0&
1*
#35000
b10 2
1#
b1 3
1&
#40000
1#
b10 2
0&
0*
#45000
b11 2
1$
0#
b10 3
1&
#50000
0&
#55000
b10 2
1$
b11 3
1&
#60000
1$
b100 2
0&
1(
#65000
b101 2
1!
0$
b100 3
1&
#70000
1!
b101 2
0&
0(
#75000
b1 2
1"
0!
b101 3
1&
#80000
0&
#85000
b10 2
1#
0"
b1 3
1&
#90000
1#
b10 2
0&
1'
#95000
b11 2
1$
0#
b10 3
1&
#100000
1$
b11 2
0&
0'
#105000
b10 2
1$
b11 3
1&
#110000
0&
#115000
b11 2
1$
b10 3
1&
#120000
0&
#125000
b10 2
1$
b11 3
1&
#130000
0&
#135000
b11 2
1$
b10 3
1&
