edge_ai_cnn_accelerator/mac_array_tb.vcd
$date
	Sat Mar 14 12:59:16 2026
$end
$version
	Icarus Verilog
$end
$timescale
	1ps
$end
$scope module mac_array_tb $end
$var wire 1 ! valid_out $end
$var wire 20 " mac_out [19:0] $end
$var reg 1 # clk $end
$var reg 1 $ en $end
$var reg 72 % pixels_in [71:0] $end
$var reg 1 & rst_n $end
$var reg 72 ' weights_in [71:0] $end
$scope module uut $end
$var wire 1 # clk $end
$var wire 1 $ en $end
$var wire 72 ( pixels_in [71:0] $end
$var wire 1 & rst_n $end
$var wire 72 ) weights_in [71:0] $end
$var reg 20 * acc_sum [19:0] $end
$var reg 20 + mac_out [19:0] $end
$var reg 1 ! valid_out $end
$var reg 1 , valid_stg1 $end
$var reg 1 - valid_stg2 $end
$var integer 32 . i [31:0] $end
$upscope $end
$upscope $end
$enddefinitions $end
$comment Show the parameter values. $end
$dumpall
$end
#0
$dumpvars
b1001 .
0-
0,
b0 +
b0 *
b0 )
b0 (
b0 '
0&
b0 %
0$
0#
b0 "
0!
$end
#5000
b1001 .
1#
#10000
0#
#15000
b1001 .
1#
#20000
0#
1&
#25000
1#
#30000
0#
b10000000100000001000000010000000100000001000000010000000100000001 '
b10000000100000001000000010000000100000001000000010000000100000001 )
b10000000100000001000000010000000100000001000000010000000100000001 %
b10000000100000001000000010000000100000001000000010000000100000001 (
1$
#35000
1,
b1001 .
1#
#40000
0#
0$
#45000
1-
0,
b1001 .
1#
#50000
0#
#55000
1!
b1001 "
b1001 +
0-
1#
#60000
0#
#65000
0!
1#
#70000
0#
#75000
1#
#80000
0#
#85000
1#
#90000
0#
b10000000100000010000000010000000100000000000000100000001100000001 '
b10000000100000010000000010000000100000000000000100000001100000001 )
b100000001100000001000000000000010000000010000000010000000100000101 %
b100000001100000001000000000000010000000010000000010000000100000101 (
1$
#95000
1,
b1001 .
1#
#100000
0#
0$
#105000
1-
0,
b1001 .
1#
#110000
0#
#115000
1!
b10101 "
b10101 +
0-
1#
#120000
0#
#125000
0!
1#
